Durée d'optimisation : 5 heures, 45 minutes et 59 secondes
Paramètres évalués :
words_chars__wc_ngrams__featureunion__char_ngrams__cvect__min_df: (0.1, 0.05, 0.01, 0)
words_chars__wc_ngrams__featureunion__char_ngrams__cvect__ngram_range: [(1, 3), (1, 4), (1, 5), (1, 6), (2, 3), (2, 4), (2, 5), (2, 6)]
words_chars__wc_ngrams__featureunion__word_ngrams__wvect__min_df: (0.1, 0.05, 0.01)
words_chars__wc_ngrams__featureunion__word_ngrams__wvect__ngram_range: [(1, 1), (1, 2), (1, 3)]

Best score : 0.8277643375030098

words_chars__wc_ngrams__featureunion__char_ngrams__cvect__min_df: 0
words_chars__wc_ngrams__featureunion__char_ngrams__cvect__ngram_range: (2, 4)
words_chars__wc_ngrams__featureunion__word_ngrams__wvect__min_df: 0.01
words_chars__wc_ngrams__featureunion__word_ngrams__wvect__ngram_range: (1, 1)

Detailed results :      mean_fit_time  mean_score_time  mean_test_score  mean_train_score  \
0        37.507962        15.182699         0.779682          0.888567   
1        39.329467        15.719539         0.779682          0.888567   
2        43.718057        17.603141         0.779682          0.888567   
3        43.957972        19.830785         0.788261          0.890225   
4        42.313398        17.329743         0.788261          0.890225   
5        41.733593        16.381845         0.788261          0.890225   
6        37.199263        16.305520         0.799181          0.902472   
7        39.809878        18.089537         0.799181          0.902823   
8        45.805139        16.218804         0.799376          0.902804   
9        40.997748        16.638650         0.776406          0.887729   
10       42.644669        17.816965         0.776406          0.887729   
11       48.162029        17.943363         0.776406          0.887729   
12       44.789533        16.383277         0.785219          0.889269   
13       42.727615        17.391264         0.785219          0.889269   
14       43.731280        17.495275         0.785219          0.889269   
15       39.720914        17.439231         0.797036          0.902004   
16       45.136208        17.459643         0.796100          0.902433   
17       49.194823        18.651639         0.796256          0.902491   
18       48.112349        19.559491         0.775548          0.887260   
19       49.142540        18.870115         0.775548          0.887260   
20       47.329614        17.202596         0.775548          0.887260   
21       41.534374        16.862803         0.783776          0.888879   
22       43.219049        17.032280         0.783776          0.888879   
23       44.855760        17.409002         0.783776          0.888879   
24       42.117859        16.954561         0.796607          0.901789   
25       44.875507        18.003837         0.795905          0.902160   
26       49.863919        20.412524         0.796022          0.902277   
27       51.433308        20.572665         0.775548          0.887260   
28       55.748485        22.223461         0.775548          0.887260   
29       51.789593        18.396998         0.775548          0.887260   
..             ...              ...              ...               ...   
258      36.077777        15.275971         0.822462          0.922169   
259      37.366948        16.161799         0.822384          0.922208   
260      39.279891        15.948295         0.822384          0.922208   
261      38.751201        16.647438         0.800582          0.906489   
262      40.827181        16.840275         0.800582          0.906489   
263      42.845677        17.449867         0.800582          0.906489   
264      39.317513        16.639957         0.805027          0.905456   
265      40.453433        16.711818         0.805027          0.905456   
266      42.451869        16.899178         0.805027          0.905456   
267      38.602899        16.594871         0.827764          0.918658   
268      40.714441        16.756419         0.827725          0.918736   
269      42.817329        16.747869         0.827686          0.918717   
270      42.050408        17.457665         0.797150          0.904344   
271      44.108664        17.638963         0.797150          0.904344   
272      45.741123        18.154180         0.797150          0.904344   
273      42.015098        17.638541         0.799996          0.902375   
274      43.918960        17.831896         0.799996          0.902375   
275      46.051435        17.652974         0.799996          0.902375   
276      42.320827        17.308205         0.824254          0.915050   
277      44.447013        18.252995         0.824098          0.915148   
278      46.188786        17.995779         0.824098          0.915129   
279      45.508192        18.218348         0.793990          0.904422   
280      47.321216        18.375300         0.793990          0.904422   
281      48.819496        18.691226         0.793990          0.904422   
282      45.273535        18.149967         0.796603          0.901360   
283      47.256965        18.788458         0.796603          0.901360   
284      49.010894        19.064875         0.796603          0.901360   
285      45.722639        18.310434         0.820041          0.914368   
286      47.187291        19.124909         0.820080          0.914426   
287      48.162153        18.282663         0.819963          0.914426   

    param_words_chars__wc_ngrams__featureunion__char_ngrams__cvect__min_df  \
0                                                  0.1                       
1                                                  0.1                       
2                                                  0.1                       
3                                                  0.1                       
4                                                  0.1                       
5                                                  0.1                       
6                                                  0.1                       
7                                                  0.1                       
8                                                  0.1                       
9                                                  0.1                       
10                                                 0.1                       
11                                                 0.1                       
12                                                 0.1                       
13                                                 0.1                       
14                                                 0.1                       
15                                                 0.1                       
16                                                 0.1                       
17                                                 0.1                       
18                                                 0.1                       
19                                                 0.1                       
20                                                 0.1                       
21                                                 0.1                       
22                                                 0.1                       
23                                                 0.1                       
24                                                 0.1                       
25                                                 0.1                       
26                                                 0.1                       
27                                                 0.1                       
28                                                 0.1                       
29                                                 0.1                       
..                                                 ...                       
258                                                  0                       
259                                                  0                       
260                                                  0                       
261                                                  0                       
262                                                  0                       
263                                                  0                       
264                                                  0                       
265                                                  0                       
266                                                  0                       
267                                                  0                       
268                                                  0                       
269                                                  0                       
270                                                  0                       
271                                                  0                       
272                                                  0                       
273                                                  0                       
274                                                  0                       
275                                                  0                       
276                                                  0                       
277                                                  0                       
278                                                  0                       
279                                                  0                       
280                                                  0                       
281                                                  0                       
282                                                  0                       
283                                                  0                       
284                                                  0                       
285                                                  0                       
286                                                  0                       
287                                                  0                       

    param_words_chars__wc_ngrams__featureunion__char_ngrams__cvect__ngram_range  \
0                                               (1, 3)                            
1                                               (1, 3)                            
2                                               (1, 3)                            
3                                               (1, 3)                            
4                                               (1, 3)                            
5                                               (1, 3)                            
6                                               (1, 3)                            
7                                               (1, 3)                            
8                                               (1, 3)                            
9                                               (1, 4)                            
10                                              (1, 4)                            
11                                              (1, 4)                            
12                                              (1, 4)                            
13                                              (1, 4)                            
14                                              (1, 4)                            
15                                              (1, 4)                            
16                                              (1, 4)                            
17                                              (1, 4)                            
18                                              (1, 5)                            
19                                              (1, 5)                            
20                                              (1, 5)                            
21                                              (1, 5)                            
22                                              (1, 5)                            
23                                              (1, 5)                            
24                                              (1, 5)                            
25                                              (1, 5)                            
26                                              (1, 5)                            
27                                              (1, 6)                            
28                                              (1, 6)                            
29                                              (1, 6)                            
..                                                 ...                            
258                                             (2, 3)                            
259                                             (2, 3)                            
260                                             (2, 3)                            
261                                             (2, 4)                            
262                                             (2, 4)                            
263                                             (2, 4)                            
264                                             (2, 4)                            
265                                             (2, 4)                            
266                                             (2, 4)                            
267                                             (2, 4)                            
268                                             (2, 4)                            
269                                             (2, 4)                            
270                                             (2, 5)                            
271                                             (2, 5)                            
272                                             (2, 5)                            
273                                             (2, 5)                            
274                                             (2, 5)                            
275                                             (2, 5)                            
276                                             (2, 5)                            
277                                             (2, 5)                            
278                                             (2, 5)                            
279                                             (2, 6)                            
280                                             (2, 6)                            
281                                             (2, 6)                            
282                                             (2, 6)                            
283                                             (2, 6)                            
284                                             (2, 6)                            
285                                             (2, 6)                            
286                                             (2, 6)                            
287                                             (2, 6)                            

    param_words_chars__wc_ngrams__featureunion__word_ngrams__wvect__min_df  \
0                                                  0.1                       
1                                                  0.1                       
2                                                  0.1                       
3                                                 0.05                       
4                                                 0.05                       
5                                                 0.05                       
6                                                 0.01                       
7                                                 0.01                       
8                                                 0.01                       
9                                                  0.1                       
10                                                 0.1                       
11                                                 0.1                       
12                                                0.05                       
13                                                0.05                       
14                                                0.05                       
15                                                0.01                       
16                                                0.01                       
17                                                0.01                       
18                                                 0.1                       
19                                                 0.1                       
20                                                 0.1                       
21                                                0.05                       
22                                                0.05                       
23                                                0.05                       
24                                                0.01                       
25                                                0.01                       
26                                                0.01                       
27                                                 0.1                       
28                                                 0.1                       
29                                                 0.1                       
..                                                 ...                       
258                                               0.01                       
259                                               0.01                       
260                                               0.01                       
261                                                0.1                       
262                                                0.1                       
263                                                0.1                       
264                                               0.05                       
265                                               0.05                       
266                                               0.05                       
267                                               0.01                       
268                                               0.01                       
269                                               0.01                       
270                                                0.1                       
271                                                0.1                       
272                                                0.1                       
273                                               0.05                       
274                                               0.05                       
275                                               0.05                       
276                                               0.01                       
277                                               0.01                       
278                                               0.01                       
279                                                0.1                       
280                                                0.1                       
281                                                0.1                       
282                                               0.05                       
283                                               0.05                       
284                                               0.05                       
285                                               0.01                       
286                                               0.01                       
287                                               0.01                       

    param_words_chars__wc_ngrams__featureunion__word_ngrams__wvect__ngram_range  \
0                                               (1, 1)                            
1                                               (1, 2)                            
2                                               (1, 3)                            
3                                               (1, 1)                            
4                                               (1, 2)                            
5                                               (1, 3)                            
6                                               (1, 1)                            
7                                               (1, 2)                            
8                                               (1, 3)                            
9                                               (1, 1)                            
10                                              (1, 2)                            
11                                              (1, 3)                            
12                                              (1, 1)                            
13                                              (1, 2)                            
14                                              (1, 3)                            
15                                              (1, 1)                            
16                                              (1, 2)                            
17                                              (1, 3)                            
18                                              (1, 1)                            
19                                              (1, 2)                            
20                                              (1, 3)                            
21                                              (1, 1)                            
22                                              (1, 2)                            
23                                              (1, 3)                            
24                                              (1, 1)                            
25                                              (1, 2)                            
26                                              (1, 3)                            
27                                              (1, 1)                            
28                                              (1, 2)                            
29                                              (1, 3)                            
..                                                 ...                            
258                                             (1, 1)                            
259                                             (1, 2)                            
260                                             (1, 3)                            
261                                             (1, 1)                            
262                                             (1, 2)                            
263                                             (1, 3)                            
264                                             (1, 1)                            
265                                             (1, 2)                            
266                                             (1, 3)                            
267                                             (1, 1)                            
268                                             (1, 2)                            
269                                             (1, 3)                            
270                                             (1, 1)                            
271                                             (1, 2)                            
272                                             (1, 3)                            
273                                             (1, 1)                            
274                                             (1, 2)                            
275                                             (1, 3)                            
276                                             (1, 1)                            
277                                             (1, 2)                            
278                                             (1, 3)                            
279                                             (1, 1)                            
280                                             (1, 2)                            
281                                             (1, 3)                            
282                                             (1, 1)                            
283                                             (1, 2)                            
284                                             (1, 3)                            
285                                             (1, 1)                            
286                                             (1, 2)                            
287                                             (1, 3)                            

                                                params  rank_test_score  \
0    {'words_chars__wc_ngrams__featureunion__char_n...              268   
1    {'words_chars__wc_ngrams__featureunion__char_n...              268   
2    {'words_chars__wc_ngrams__featureunion__char_n...              268   
3    {'words_chars__wc_ngrams__featureunion__char_n...              193   
4    {'words_chars__wc_ngrams__featureunion__char_n...              193   
5    {'words_chars__wc_ngrams__featureunion__char_n...              193   
6    {'words_chars__wc_ngrams__featureunion__char_n...               69   
7    {'words_chars__wc_ngrams__featureunion__char_n...               68   
8    {'words_chars__wc_ngrams__featureunion__char_n...               67   
9    {'words_chars__wc_ngrams__featureunion__char_n...              274   
10   {'words_chars__wc_ngrams__featureunion__char_n...              274   
11   {'words_chars__wc_ngrams__featureunion__char_n...              274   
12   {'words_chars__wc_ngrams__featureunion__char_n...              220   
13   {'words_chars__wc_ngrams__featureunion__char_n...              220   
14   {'words_chars__wc_ngrams__featureunion__char_n...              220   
15   {'words_chars__wc_ngrams__featureunion__char_n...               97   
16   {'words_chars__wc_ngrams__featureunion__char_n...              125   
17   {'words_chars__wc_ngrams__featureunion__char_n...              124   
18   {'words_chars__wc_ngrams__featureunion__char_n...              277   
19   {'words_chars__wc_ngrams__featureunion__char_n...              277   
20   {'words_chars__wc_ngrams__featureunion__char_n...              277   
21   {'words_chars__wc_ngrams__featureunion__char_n...              235   
22   {'words_chars__wc_ngrams__featureunion__char_n...              235   
23   {'words_chars__wc_ngrams__featureunion__char_n...              235   
24   {'words_chars__wc_ngrams__featureunion__char_n...              115   
25   {'words_chars__wc_ngrams__featureunion__char_n...              131   
26   {'words_chars__wc_ngrams__featureunion__char_n...              126   
27   {'words_chars__wc_ngrams__featureunion__char_n...              277   
28   {'words_chars__wc_ngrams__featureunion__char_n...              277   
29   {'words_chars__wc_ngrams__featureunion__char_n...              277   
..                                                 ...              ...   
258  {'words_chars__wc_ngrams__featureunion__char_n...                7   
259  {'words_chars__wc_ngrams__featureunion__char_n...                8   
260  {'words_chars__wc_ngrams__featureunion__char_n...                8   
261  {'words_chars__wc_ngrams__featureunion__char_n...               53   
262  {'words_chars__wc_ngrams__featureunion__char_n...               53   
263  {'words_chars__wc_ngrams__featureunion__char_n...               53   
264  {'words_chars__wc_ngrams__featureunion__char_n...               28   
265  {'words_chars__wc_ngrams__featureunion__char_n...               28   
266  {'words_chars__wc_ngrams__featureunion__char_n...               28   
267  {'words_chars__wc_ngrams__featureunion__char_n...                1   
268  {'words_chars__wc_ngrams__featureunion__char_n...                2   
269  {'words_chars__wc_ngrams__featureunion__char_n...                3   
270  {'words_chars__wc_ngrams__featureunion__char_n...               94   
271  {'words_chars__wc_ngrams__featureunion__char_n...               94   
272  {'words_chars__wc_ngrams__featureunion__char_n...               94   
273  {'words_chars__wc_ngrams__featureunion__char_n...               64   
274  {'words_chars__wc_ngrams__featureunion__char_n...               64   
275  {'words_chars__wc_ngrams__featureunion__char_n...               64   
276  {'words_chars__wc_ngrams__featureunion__char_n...                4   
277  {'words_chars__wc_ngrams__featureunion__char_n...                5   
278  {'words_chars__wc_ngrams__featureunion__char_n...                5   
279  {'words_chars__wc_ngrams__featureunion__char_n...              151   
280  {'words_chars__wc_ngrams__featureunion__char_n...              151   
281  {'words_chars__wc_ngrams__featureunion__char_n...              151   
282  {'words_chars__wc_ngrams__featureunion__char_n...              117   
283  {'words_chars__wc_ngrams__featureunion__char_n...              117   
284  {'words_chars__wc_ngrams__featureunion__char_n...              117   
285  {'words_chars__wc_ngrams__featureunion__char_n...               14   
286  {'words_chars__wc_ngrams__featureunion__char_n...               13   
287  {'words_chars__wc_ngrams__featureunion__char_n...               15   

     split0_test_score  split0_train_score  split1_test_score  \
0             0.651029            0.873501           0.903230   
1             0.651029            0.873501           0.903230   
2             0.651029            0.873501           0.903230   
3             0.678989            0.881107           0.901123   
4             0.678989            0.881107           0.901123   
5             0.678989            0.881107           0.901123   
6             0.696186            0.892400           0.906974   
7             0.696069            0.893277           0.907091   
8             0.696069            0.893277           0.907676   
9             0.643074            0.872096           0.902293   
10            0.643074            0.872096           0.902293   
11            0.643074            0.872096           0.902293   
12            0.672321            0.879235           0.900421   
13            0.672321            0.879235           0.900421   
14            0.672321            0.879235           0.900421   
15            0.689401            0.891463           0.906740   
16            0.687763            0.892048           0.907091   
17            0.687763            0.892048           0.907442   
18            0.639799            0.870692           0.902527   
19            0.639799            0.870692           0.902527   
20            0.639799            0.870692           0.902527   
21            0.667759            0.878123           0.900538   
22            0.667759            0.878123           0.900538   
23            0.667759            0.878123           0.900538   
24            0.687997            0.890995           0.906857   
25            0.687061            0.891639           0.907325   
26            0.687061            0.891639           0.907559   
27            0.639799            0.870692           0.902527   
28            0.639799            0.870692           0.902527   
29            0.639799            0.870692           0.902527   
..                 ...                 ...                ...   
258           0.754445            0.915862           0.917856   
259           0.754328            0.916038           0.917856   
260           0.754328            0.916038           0.917856   
261           0.727188            0.899713           0.892815   
262           0.727188            0.899713           0.892815   
263           0.727188            0.899713           0.892815   
264           0.745672            0.901586           0.886497   
265           0.745672            0.901586           0.886497   
266           0.745672            0.901586           0.886497   
267           0.785915            0.913054           0.903464   
268           0.786383            0.913288           0.903698   
269           0.786383            0.913288           0.903581   
270           0.727071            0.894857           0.885209   
271           0.727071            0.894857           0.885209   
272           0.727071            0.894857           0.885209   
273           0.744619            0.896905           0.876199   
274           0.744619            0.896905           0.876199   
275           0.744619            0.896905           0.876199   
276           0.787436            0.908724           0.894922   
277           0.787085            0.908841           0.894805   
278           0.787085            0.908841           0.894805   
279           0.724731            0.893102           0.879593   
280           0.724731            0.893102           0.879593   
281           0.724731            0.893102           0.879593   
282           0.740641            0.893453           0.871168   
283           0.740641            0.893453           0.871168   
284           0.740641            0.893453           0.871168   
285           0.783692            0.906969           0.888837   
286           0.784277            0.907086           0.888720   
287           0.784277            0.907086           0.888369   

     split1_train_score  split2_test_score  split2_train_score  std_fit_time  \
0              0.878722           0.784786            0.913478      0.731672   
1              0.878722           0.784786            0.913478      0.781625   
2              0.878722           0.784786            0.913478      4.074727   
3              0.876090           0.784669            0.913478      0.736592   
4              0.876090           0.784669            0.913478      1.275518   
5              0.876090           0.784669            0.913478      2.133332   
6              0.889604           0.794383            0.925412      1.097381   
7              0.889721           0.794383            0.925471      0.678282   
8              0.889662           0.794383            0.925471      0.466877   
9              0.878664           0.783850            0.912425      1.826516   
10             0.878664           0.783850            0.912425      2.920422   
11             0.878664           0.783850            0.912425      0.951068   
12             0.876207           0.782914            0.912367      0.264644   
13             0.876207           0.782914            0.912367      1.210969   
14             0.876207           0.782914            0.912367      1.190609   
15             0.890072           0.794968            0.924476      0.902247   
16             0.890423           0.793446            0.924827      0.890751   
17             0.890481           0.793563            0.924944      1.836361   
18             0.878547           0.784318            0.912542      1.310713   
19             0.878547           0.784318            0.912542      1.567902   
20             0.878547           0.784318            0.912542      0.822820   
21             0.876265           0.783031            0.912250      0.737507   
22             0.876265           0.783031            0.912250      0.559829   
23             0.876265           0.783031            0.912250      1.166987   
24             0.890130           0.794968            0.924242      1.136411   
25             0.890189           0.793329            0.924652      1.571409   
26             0.890481           0.793446            0.924710      2.414295   
27             0.878547           0.784318            0.912542      1.127441   
28             0.878547           0.784318            0.912542      1.558552   
29             0.878547           0.784318            0.912542      4.544846   
..                  ...                ...                 ...           ...   
258            0.910022           0.795085            0.940622      0.520069   
259            0.910256           0.794968            0.940330      0.611912   
260            0.910256           0.794968            0.940330      0.686415   
261            0.889136           0.781744            0.930619      0.833881   
262            0.889136           0.781744            0.930619      0.794034   
263            0.889136           0.781744            0.930619      1.125043   
264            0.884339           0.782914            0.930443      0.762221   
265            0.884339           0.782914            0.930443      0.616822   
266            0.884339           0.782914            0.930443      0.910540   
267            0.899784           0.793915            0.943138      0.852329   
268            0.900018           0.793095            0.942904      1.339044   
269            0.900018           0.793095            0.942845      0.276453   
270            0.886152           0.779169            0.932023      0.823287   
271            0.886152           0.779169            0.932023      0.990530   
272            0.886152           0.779169            0.932023      1.136792   
273            0.880126           0.779169            0.930092      0.881807   
274            0.880126           0.779169            0.930092      1.029375   
275            0.880126           0.779169            0.930092      1.048538   
276            0.893407           0.790404            0.943021      1.279851   
277            0.893582           0.790404            0.943021      1.224328   
278            0.893524           0.790404            0.943021      1.023219   
279            0.886445           0.777648            0.933719      1.529853   
280            0.886445           0.777648            0.933719      0.821920   
281            0.886445           0.777648            0.933719      0.770314   
282            0.879541           0.777999            0.931087      1.097922   
283            0.879541           0.777999            0.931087      1.373892   
284            0.879541           0.777999            0.931087      0.792996   
285            0.891593           0.787595            0.944542      1.198351   
286            0.891710           0.787244            0.944483      0.741063   
287            0.891710           0.787244            0.944483      0.511303   

     std_score_time  std_test_score  std_train_score  
0          0.442958        0.103024         0.017743  
1          0.410378        0.103024         0.017743  
2          1.557120        0.103024         0.017743  
3          0.404789        0.090721         0.016570  
4          1.061630        0.090721         0.016570  
5          0.522478        0.090721         0.016570  
6          0.197680        0.086121         0.016261  
7          0.829381        0.086216         0.016080  
8          0.660273        0.086460         0.016096  
9          0.312592        0.105957         0.017668  
10         0.360930        0.105957         0.017668  
11         0.590015        0.105957         0.017668  
12         0.760337        0.093136         0.016379  
13         0.669215        0.093136         0.016379  
14         0.738479        0.093136         0.016379  
15         0.306387        0.088740         0.015901  
16         0.601464        0.089560         0.015849  
17         0.303324        0.089704         0.015890  
18         0.811629        0.107438         0.018162  
19         0.783586        0.107438         0.018162  
20         0.810510        0.107438         0.018162  
21         0.552337        0.095033         0.016543  
22         0.660754        0.095033         0.016543  
23         0.742767        0.095033         0.016543  
24         0.529830        0.089357         0.015881  
25         0.498400        0.089941         0.015915  
26         0.895259        0.090036         0.015870  
27         0.912002        0.107438         0.018162  
28         1.891492        0.107438         0.018162  
29         1.616398        0.107438         0.018162  
..              ...             ...              ...  
258        0.708820        0.069464         0.013265  
259        0.404562        0.069518         0.013030  
260        0.477010        0.069518         0.013030  
261        0.449421        0.068917         0.017600  
262        0.638255        0.068917         0.017600  
263        0.762642        0.068917         0.017600  
264        0.482438        0.059580         0.019020  
265        0.562824        0.059580         0.019020  
266        0.810379        0.059580         0.019020  
267        0.704074        0.053627         0.018138  
268        0.514624        0.053790         0.017927  
269        0.279066        0.053735         0.017901  
270        0.599036        0.065800         0.019892  
271        0.797825        0.065800         0.019892  
272        0.515577        0.065800         0.019892  
273        0.668012        0.055700         0.020762  
274        0.438508        0.055700         0.020762  
275        0.768765        0.055700         0.020762  
276        0.631349        0.049984         0.020743  
277        1.100467        0.050016         0.020670  
278        0.625567        0.050016         0.020691  
279        0.948847        0.064270         0.020894  
280        0.685406        0.064270         0.020894  
281        0.629840        0.064270         0.020894  
282        0.589685        0.054887         0.021774  
283        0.306411        0.054887         0.021774  
284        0.855932        0.054887         0.021774  
285        0.712232        0.048672         0.022240  
286        0.534897        0.048551         0.022161  
287        1.080968        0.048385         0.022161  

[288 rows x 20 columns]
