Durée d'optimisation : 1 heures, 38 minutes et 30 secondes
Paramètres évalués :
words_chars__wc_ngrams__featureunion__char_ngrams__cvect__min_df: (0.01, 0.005, 0)
words_chars__wc_ngrams__featureunion__char_ngrams__cvect__ngram_range: [(1, 4), (1, 5), (2, 4), (2, 5)]
words_chars__wc_ngrams__featureunion__word_ngrams__wvect__min_df: (0.05, 0.01)
words_chars__wc_ngrams__featureunion__word_ngrams__wvect__ngram_range: [(1, 1), (1, 2), (1, 3)]

Best score : 0.8561073711525058

words_chars__wc_ngrams__featureunion__char_ngrams__cvect__min_df: 0.005
words_chars__wc_ngrams__featureunion__char_ngrams__cvect__ngram_range: (2, 4)
words_chars__wc_ngrams__featureunion__word_ngrams__wvect__min_df: 0.01
words_chars__wc_ngrams__featureunion__word_ngrams__wvect__ngram_range: (1, 3)

Detailed results :     mean_fit_time  std_fit_time  ...  mean_train_score  std_train_score
0       45.061330      1.183019  ...          0.904149         0.007639
1       46.916543      1.333873  ...          0.904149         0.007639
2       49.179779      1.475566  ...          0.904149         0.007639
3       45.680627      1.291866  ...          0.905222         0.008170
4       47.236813      1.489198  ...          0.905261         0.008357
5       48.961097      0.913649  ...          0.905261         0.008400
6       47.989217      1.713057  ...          0.904403         0.007871
7       49.892894      1.447710  ...          0.904403         0.007871
8       51.022953      1.827770  ...          0.904403         0.007871
9       47.781291      1.441652  ...          0.904656         0.008902
10      49.313046      1.319934  ...          0.904676         0.008804
11      51.240173      1.585066  ...          0.904676         0.008804
12      42.543036      1.335184  ...          0.906723         0.007386
13      44.268945      1.221304  ...          0.906723         0.007386
14      46.391218      1.134038  ...          0.906723         0.007386
15      42.828271      1.084912  ...          0.906957         0.008396
16      44.934280      1.242073  ...          0.907055         0.008238
17      46.168758      1.025640  ...          0.906977         0.008213
18      45.399562      1.256777  ...          0.906509         0.007750
19      47.349797      1.231714  ...          0.906509         0.007750
20      48.859786      1.212556  ...          0.906509         0.007750
21      45.532064      1.325541  ...          0.906255         0.008324
22      47.168464      1.309695  ...          0.906275         0.008269
23      48.889022      1.280942  ...          0.906216         0.008230
24      45.236417      1.574732  ...          0.909610         0.006841
25      46.733644      1.233944  ...          0.909610         0.006841
26      48.366815      1.481758  ...          0.909610         0.006841
27      45.143005      1.447964  ...          0.911345         0.007191
28      46.577924      1.377581  ...          0.911365         0.007087
29      48.283611      1.294442  ...          0.911345         0.007059
..            ...           ...  ...               ...              ...
42      46.913750      1.060156  ...          0.912281         0.006563
43      48.257864      1.475008  ...          0.912281         0.006563
44      50.325490      1.590500  ...          0.912281         0.006563
45      46.227575      0.961710  ...          0.913822         0.006720
46      47.630570      1.515750  ...          0.913803         0.006735
47      50.531182      1.775818  ...          0.913803         0.006778
48      46.193275      1.228923  ...          0.898396         0.006625
49      47.982458      1.239989  ...          0.898396         0.006625
50      49.502198      0.869953  ...          0.898396         0.006625
51      46.581876      1.369104  ...          0.897168         0.006644
52      48.653112      1.883349  ...          0.897168         0.006606
53      50.403149      1.127220  ...          0.897168         0.006606
54      49.904189      1.211980  ...          0.900990         0.006037
55      52.331042      1.464776  ...          0.900990         0.006037
56      53.609503      1.494846  ...          0.900990         0.006037
57      49.732087      1.005691  ...          0.899098         0.006202
58      51.367718      1.602293  ...          0.899137         0.006180
59      53.073092      1.600405  ...          0.899118         0.006191
60      44.132671      1.298405  ...          0.902414         0.006467
61      45.535178      1.271019  ...          0.902414         0.006467
62      47.776352      1.204083  ...          0.902414         0.006467
63      44.277631      1.211054  ...          0.901770         0.006170
64      47.574207      1.323841  ...          0.901731         0.006152
65      48.407679      1.024342  ...          0.901770         0.006170
66      47.950345      1.411592  ...          0.905085         0.006045
67      50.128793      1.870410  ...          0.905085         0.006045
68      51.550646      1.195258  ...          0.905085         0.006045
69      47.865163      1.401154  ...          0.903506         0.006531
70      49.531442      1.628458  ...          0.903584         0.006527
71      51.432930      1.601562  ...          0.903603         0.006554

[72 rows x 20 columns]
