Durée d'optimisation : 0 heures, 29 minutes et 43 secondes
Paramètres évalués :
clf_w2__preprocess__wvect__min_df: (0.01, 0.005, 0.001, 0)
clf_c2__preprocess__cvect__min_df: (0.05, 0.01, 0.005, 0.001, 0)

Best score : 0.8510093559518115

clf_c2__preprocess__cvect__min_df: 0
clf_w2__preprocess__wvect__min_df: 0

Detailed results :     mean_fit_time  std_fit_time  ...  mean_train_score  std_train_score
0       45.674584      0.766171  ...          0.941514         0.013183
1       45.049301      0.661117  ...          0.941592         0.013202
2       45.052300      1.116277  ...          0.941670         0.013156
3       45.785850      0.623287  ...          0.947228         0.012399
4       44.172175      0.597254  ...          0.942314         0.012716
5       44.080564      0.707126  ...          0.942372         0.012708
6       43.705128      0.750338  ...          0.942489         0.012782
7       43.742440      0.606199  ...          0.947950         0.011745
8       49.223402      0.837556  ...          0.942762         0.012770
9       48.150410      1.120904  ...          0.942821         0.012763
10      48.639444      3.237807  ...          0.942957         0.012828
11      51.289132      0.104862  ...          0.948262         0.011450
12      48.133405      0.611893  ...          0.943250         0.012545
13      45.839172      1.203390  ...          0.943289         0.012510
14      45.592340      0.963209  ...          0.943347         0.012532
15      46.035727      0.719893  ...          0.948710         0.011158
16      51.135927      0.165987  ...          0.943172         0.012718
17      47.527980      1.328008  ...          0.943191         0.012700
18      49.030402      1.761640  ...          0.943308         0.012730
19      49.249586      1.015473  ...          0.948476         0.011197

[20 rows x 18 columns]
