Durée d'optimisation : 1 heures, 39 minutes et 48 secondes
Paramètres évalués :
words_chars__wc_ngrams__featureunion__char_ngrams__cvect__min_df: (0.01, 0.005, 0)
words_chars__wc_ngrams__featureunion__char_ngrams__cvect__ngram_range: [(1, 4), (1, 5), (2, 4), (2, 5)]
words_chars__wc_ngrams__featureunion__word_ngrams__wvect__min_df: (0.05, 0.01)
words_chars__wc_ngrams__featureunion__word_ngrams__wvect__ngram_range: [(1, 1), (1, 2), (1, 3)]

Best score : 0.8970265605129272

words_chars__wc_ngrams__featureunion__char_ngrams__cvect__min_df: 0
words_chars__wc_ngrams__featureunion__char_ngrams__cvect__ngram_range: (1, 5)
words_chars__wc_ngrams__featureunion__word_ngrams__wvect__min_df: 0.01
words_chars__wc_ngrams__featureunion__word_ngrams__wvect__ngram_range: (1, 1)

Detailed results :     mean_fit_time  std_fit_time  ...  mean_train_score  std_train_score
0       48.667178      1.221976  ...          0.983248         0.001269
1       49.991643      1.012304  ...          0.983248         0.001269
2       51.685462      1.595655  ...          0.983248         0.001269
3       49.297315      0.993358  ...          0.985237         0.000985
4       48.263246      1.225994  ...          0.985179         0.000940
5       50.853855      1.807387  ...          0.985179         0.000940
6       50.892493      1.307238  ...          0.983794         0.001052
7       52.292165      1.325546  ...          0.983794         0.001052
8       55.184518      1.328394  ...          0.983794         0.001052
9       50.960637      1.122375  ...          0.985452         0.001003
10      53.148953      2.291179  ...          0.985432         0.000942
11      56.361636      2.024704  ...          0.985432         0.000942
12      47.648610      1.108109  ...          0.984691         0.001247
13      48.526445      0.420694  ...          0.984691         0.001247
14      50.301202      1.788208  ...          0.984691         0.001247
15      47.295208      1.590679  ...          0.986505         0.000786
16      49.618433      0.797476  ...          0.986583         0.000807
17      51.137949      0.911744  ...          0.986583         0.000807
18      51.525343      1.719485  ...          0.984828         0.001195
19      53.103023      1.646459  ...          0.984828         0.001195
20      52.489516      1.492295  ...          0.984828         0.001195
21      49.356492      0.576028  ...          0.986602         0.000830
22      50.852330      1.589184  ...          0.986719         0.000770
23      52.848523      1.660198  ...          0.986719         0.000770
24      50.573490      0.941361  ...          0.986875         0.000855
25      52.960522      1.521572  ...          0.986875         0.000855
26      54.406668      1.210794  ...          0.986875         0.000855
27      50.636336      1.611622  ...          0.988065         0.000457
28      51.459181      1.557855  ...          0.988085         0.000442
29      53.888383      1.192425  ...          0.988085         0.000442
..            ...           ...  ...               ...              ...
42      50.919445      1.113041  ...          0.987870         0.000862
43      52.455822      1.582817  ...          0.987870         0.000862
44      53.778832      1.507174  ...          0.987870         0.000862
45      51.862119      2.268911  ...          0.989021         0.000544
46      52.953435      1.034771  ...          0.989001         0.000564
47      53.818826      1.424648  ...          0.989001         0.000564
48      54.320334      1.077886  ...          0.992589         0.000523
49      55.616905      1.796709  ...          0.992589         0.000523
50      57.365917      1.633217  ...          0.992589         0.000523
51      52.790792      1.715833  ...          0.993253         0.000583
52      53.720158      1.334317  ...          0.993253         0.000583
53      56.830339      1.984410  ...          0.993253         0.000583
54      60.422031      1.013380  ...          0.993584         0.000569
55      62.449542      2.433661  ...          0.993584         0.000569
56      64.463638      2.077063  ...          0.993584         0.000569
57      59.480568      1.126908  ...          0.993838         0.000772
58      61.492505      1.119476  ...          0.993838         0.000764
59      63.397885      2.049332  ...          0.993838         0.000764
60      51.197751      0.955712  ...          0.993155         0.000631
61      52.979577      1.020736  ...          0.993155         0.000631
62      54.651854      1.415132  ...          0.993155         0.000631
63      50.898018      1.183920  ...          0.993545         0.000648
64      52.622302      1.366621  ...          0.993584         0.000669
65      54.560744      0.923966  ...          0.993584         0.000669
66      58.277228      1.449296  ...          0.993760         0.000740
67      60.035468      2.294253  ...          0.993760         0.000740
68      61.459032      1.931277  ...          0.993760         0.000740
69      56.766378      0.499405  ...          0.994013         0.000724
70      57.903218      1.634489  ...          0.994033         0.000768
71      59.744962      2.190370  ...          0.994033         0.000768

[72 rows x 20 columns]
